; Engine configuration file.
; It's best edited using the editor UI and not directly,
; since the parameters that go here are not all obvious.
;
; Format:
;   [section] ; section goes between []
;   param=value ; assign values to parameters

config_version=5

[application]

config/name="Big_Slow_and_Hungry_Game"
run/main_scene="res://maps/test_map_1.tscn"
config/features=PackedStringArray("4.0")
config/icon="res://icon.png"

[display]

window/stretch/mode="canvas_items"
window/vsync/use_vsync=false

[gui]

common/drop_mouse_on_gui_input_disabled=true

[importer_defaults]

texture={
"compress/bptc_ldr": 0,
"compress/channel_pack": 0,
"compress/hdr_compression": 1,
"compress/lossy_quality": 0.7,
"compress/mode": 0,
"compress/normal_map": 0,
"detect_3d/compress_to": 0,
"mipmaps/generate": false,
"mipmaps/limit": -1,
"process/fix_alpha_border": true,
"process/hdr_as_srgb": false,
"process/hdr_clamp_exposure": false,
"process/normal_map_invert_y": false,
"process/premult_alpha": false,
"process/size_limit": 0,
"roughness/mode": 0,
"roughness/src_normal": ""
}

[physics]

common/enable_pause_aware_picking=true

[rendering]

quality/intended_usage/framebuffer_allocation=0
quality/intended_usage/framebuffer_allocation.mobile=1
2d/snapping/use_gpu_pixel_snap=true
environment/default_environment="res://default_env.tres"
