[gd_scene load_steps=4 format=2]

[ext_resource path="res://effects/smoketrail/trail.png" type="Texture2D" id=1]
[ext_resource path="res://effects/smoketrail/Smoketrail.gd" type="Script" id=2]

[sub_resource type="Curve" id=1]
_data = [ Vector2( 0.0675676, 0.663636 ), 0.0, -0.0602442, 0, 0, Vector2( 1, 0 ), -0.988125, 0.0, 0, 0 ]

[node name="Smoketrail" type="Line2D"]
points = PackedVector2Array( 0, 0, -7, 3, -9, -3, -13, -4, -14, -1 )
width = 6.0
width_curve = SubResource( 1 )
default_color = Color( 0.470588, 0.470588, 0.470588, 1 )
texture = ExtResource( 1 )
texture_mode = 2
script = ExtResource( 2 )

[node name="Decay" type="Tween" parent="."]
