[gd_scene load_steps=4 format=3 uid="uid://cgft3uakp13jj"]

[ext_resource type="Texture2D" uid="uid://cdftii3vwmu1e" path="res://entities/projectile/Projectile_sprite.png" id="1"]
[ext_resource type="Script" path="res://entities/projectile/Projectile.gd" id="2"]
[ext_resource type="Texture2D" uid="uid://ch61mtn6ucpbr" path="res://entities/projectile/Explosion_sprite.png" id="3"]

[node name="Projectile" type="Node2D"]
script = ExtResource("2")

[node name="Line2d" type="Line2D" parent="."]
width = 6.0

[node name="Sprite2D" type="Sprite2D" parent="."]
position = Vector2(-8, 0)
texture = ExtResource("1")

[node name="Explosion" type="Sprite2D" parent="."]
position = Vector2(3, 0)
texture = ExtResource("3")

[node name="VanishTimer" type="Timer" parent="."]

[connection signal="timeout" from="VanishTimer" to="." method="_on_VanishTimer_timeout"]
