[gd_scene load_steps=3 format=2]

[ext_resource path="res://entities/commands/Waypoint_sprite.png" type="Texture2D" id=1]
[ext_resource path="res://entities/commands/Command.tscn" type="PackedScene" id=2]

[node name="Waypoint" groups=["waypoints"] instance=ExtResource( 2 )]

[node name="Sprite2D" parent="." index="0"]
texture = ExtResource( 1 )
